(lp1
(lp2
I193
aI189
aI197
aa(lp3
I185
aI195
aI181
aa(lp4
I180
aI204
aI197
aa(lp5
I181
aI180
aI195
aa(lp6
I206
aI209
aI188
aa(lp7
I183
aI216
aI179
aa(lp8
I221
aI195
aI202
aa(lp9
I173
aI222
aI175
aa(lp10
I182
aI195
aI180
aa(lp11
I204
aI200
aI192
aa(lp12
I199
aI187
aI178
aa(lp13
I184
aI199
aI195
aa(lp14
I183
aI207
aI204
aa(lp15
I230
aI169
aI186
aa(lp16
I186
aI199
aI199
aa(lp17
I201
aI185
aI189
aa(lp18
I175
aI178
aI191
aa(lp19
I199
aI199
aI204
aa(lp20
I207
aI199
aI215
aa(lp21
I214
aI198
aI188
aa(lp22
I209
aI204
aI196
aa(lp23
I180
aI186
aI195
aa(lp24
I175
aI188
aI204
aa(lp25
I204
aI193
aI189
aa(lp26
I220
aI192
aI201
aa(lp27
I209
aI209
aI195
aa(lp28
I202
aI199
aI193
aa(lp29
I210
aI202
aI223
aa(lp30
I181
aI192
aI190
aa(lp31
I175
aI225
aI202
aa(lp32
I186
aI203
aI194
aa(lp33
I202
aI227
aI192
aa(lp34
I196
aI192
aI205
aa(lp35
I204
aI216
aI198
aa(lp36
I207
aI220
aI191
aa(lp37
I209
aI182
aI198
aa(lp38
I199
aI200
aI191
aa(lp39
I188
aI206
aI186
aa(lp40
I209
aI231
aI189
aa(lp41
I197
aI197
aI191
aa(lp42
I214
aI186
aI195
aa(lp43
I180
aI192
aI203
aa(lp44
I189
aI220
aI184
aa(lp45
I186
aI203
aI198
aa(lp46
I207
aI201
aI198
aa(lp47
I194
aI192
aI199
aa(lp48
I200
aI201
aI183
aa(lp49
I202
aI179
aI175
aa(lp50
I195
aI203
aI204
aa(lp51
I188
aI199
aI187
aa(lp52
I188
aI196
aI194
aa(lp53
I217
aI212
aI216
aa(lp54
I198
aI216
aI196
aa(lp55
I176
aI207
aI205
aa(lp56
I187
aI201
aI218
aa(lp57
I181
aI182
aI195
aa(lp58
I187
aI194
aI184
aa(lp59
I178
aI224
aI208
aa(lp60
I205
aI187
aI184
aa(lp61
I197
aI213
aI197
aa(lp62
I190
aI205
aI182
aa(lp63
I205
aI195
aI200
aa(lp64
I203
aI204
aI172
aa(lp65
I198
aI200
aI203
aa(lp66
I228
aI203
aI190
aa(lp67
I211
aI189
aI194
aa(lp68
I178
aI204
aI184
aa(lp69
I183
aI195
aI189
aa(lp70
I204
aI207
aI196
aa(lp71
I190
aI222
aI230
aa(lp72
I192
aI200
aI203
aa(lp73
I232
aI209
aI191
aa(lp74
I181
aI183
aI210
aa(lp75
I199
aI200
aI219
aa(lp76
I209
aI213
aI191
aa(lp77
I182
aI197
aI189
aa(lp78
I197
aI208
aI176
aa(lp79
I199
aI209
aI173
aa(lp80
I183
aI194
aI201
aa(lp81
I209
aI195
aI195
aa(lp82
I182
aI195
aI197
aa(lp83
I207
aI187
aI191
aa(lp84
I188
aI186
aI211
aa(lp85
I212
aI186
aI201
aa(lp86
I187
aI185
aI215
aa(lp87
I198
aI189
aI194
aa(lp88
I195
aI198
aI194
aa(lp89
I217
aI186
aI203
aa(lp90
I193
aI192
aI205
aa(lp91
I197
aI189
aI213
aa(lp92
I181
aI204
aI200
aa(lp93
I191
aI201
aI213
aa(lp94
I176
aI183
aI216
aa(lp95
I188
aI197
aI177
aa(lp96
I225
aI185
aI202
aa(lp97
I198
aI180
aI205
aa(lp98
I202
aI204
aI210
aa(lp99
I208
aI212
aI183
aa(lp100
I215
aI189
aI177
aa(lp101
I210
aI197
aI196
aa.