(lp1
(lp2
I134
aI132
aI142
aa(lp3
I134
aI150
aI148
aa(lp4
I126
aI145
aI150
aa(lp5
I129
aI140
aI151
aa(lp6
I128
aI144
aI138
aa(lp7
I143
aI152
aI148
aa(lp8
I140
aI145
aI141
aa(lp9
I150
aI140
aI151
aa(lp10
I149
aI142
aI137
aa(lp11
I135
aI144
aI149
aa(lp12
I141
aI146
aI160
aa(lp13
I153
aI146
aI149
aa(lp14
I126
aI148
aI136
aa(lp15
I159
aI159
aI149
aa(lp16
I139
aI127
aI150
aa(lp17
I157
aI134
aI138
aa(lp18
I152
aI139
aI154
aa(lp19
I148
aI134
aI143
aa(lp20
I142
aI131
aI136
aa(lp21
I138
aI134
aI128
aa(lp22
I132
aI134
aI139
aa(lp23
I147
aI159
aI135
aa(lp24
I135
aI126
aI132
aa(lp25
I130
aI126
aI141
aa(lp26
I144
aI141
aI130
aa(lp27
I153
aI149
aI129
aa(lp28
I122
aI135
aI156
aa(lp29
I147
aI123
aI138
aa(lp30
I129
aI122
aI152
aa(lp31
I131
aI144
aI158
aa(lp32
I137
aI137
aI132
aa(lp33
I143
aI153
aI139
aa(lp34
I134
aI138
aI132
aa(lp35
I141
aI141
aI127
aa(lp36
I139
aI137
aI143
aa(lp37
I145
aI139
aI147
aa(lp38
I145
aI149
aI152
aa(lp39
I130
aI137
aI136
aa(lp40
I150
aI141
aI139
aa(lp41
I144
aI131
aI142
aa(lp42
I145
aI146
aI137
aa(lp43
I138
aI136
aI134
aa(lp44
I128
aI134
aI125
aa(lp45
I142
aI144
aI133
aa(lp46
I132
aI149
aI132
aa(lp47
I148
aI144
aI143
aa(lp48
I115
aI147
aI132
aa(lp49
I126
aI138
aI145
aa(lp50
I137
aI146
aI136
aa(lp51
I142
aI160
aI148
aa(lp52
I116
aI140
aI158
aa(lp53
I135
aI139
aI146
aa(lp54
I136
aI152
aI124
aa(lp55
I138
aI133
aI135
aa(lp56
I132
aI128
aI147
aa(lp57
I134
aI154
aI134
aa(lp58
I147
aI153
aI146
aa(lp59
I125
aI133
aI119
aa(lp60
I145
aI134
aI137
aa(lp61
I131
aI124
aI147
aa(lp62
I141
aI133
aI127
aa(lp63
I142
aI138
aI147
aa(lp64
I135
aI130
aI128
aa(lp65
I127
aI144
aI146
aa(lp66
I174
aI123
aI135
aa(lp67
I154
aI122
aI131
aa(lp68
I134
aI143
aI133
aa(lp69
I153
aI142
aI147
aa(lp70
I133
aI141
aI135
aa(lp71
I142
aI136
aI118
aa(lp72
I126
aI138
aI143
aa(lp73
I135
aI140
aI133
aa(lp74
I142
aI145
aI122
aa(lp75
I151
aI138
aI141
aa(lp76
I135
aI148
aI138
aa(lp77
I151
aI136
aI134
aa(lp78
I131
aI138
aI130
aa(lp79
I125
aI136
aI155
aa(lp80
I122
aI136
aI135
aa(lp81
I140
aI144
aI148
aa(lp82
I124
aI152
aI146
aa(lp83
I145
aI131
aI134
aa(lp84
I130
aI130
aI160
aa(lp85
I143
aI145
aI134
aa(lp86
I144
aI130
aI123
aa(lp87
I137
aI153
aI147
aa(lp88
I137
aI153
aI143
aa(lp89
I130
aI133
aI144
aa(lp90
I139
aI151
aI146
aa(lp91
I144
aI148
aI135
aa(lp92
I143
aI123
aI134
aa(lp93
I146
aI127
aI146
aa(lp94
I158
aI154
aI137
aa(lp95
I149
aI128
aI125
aa(lp96
I125
aI131
aI140
aa(lp97
I131
aI129
aI137
aa(lp98
I150
aI128
aI151
aa(lp99
I131
aI151
aI137
aa(lp100
I124
aI159
aI152
aa(lp101
I146
aI136
aI141
aa.