(lp1
(lp2
I829
aI838
aI835
aa(lp3
I859
aI820
aI852
aa(lp4
I810
aI858
aI858
aa(lp5
I789
aI10000000
aI10000000
aa(lp6
I838
aI814
aI10000000
aa(lp7
I795
aI840
aI10000000
aa(lp8
I10000000
aI10000000
aI10000000
aa(lp9
I10000000
aI10000000
aI10000000
aa(lp10
I819
aI10000000
aI822
aa(lp11
I10000000
aI855
aI851
aa(lp12
I850
aI10000000
aI851
aa(lp13
I841
aI854
aI10000000
aa(lp14
I846
aI811
aI10000000
aa(lp15
I822
aI847
aI10000000
aa(lp16
I871
aI795
aI10000000
aa(lp17
I10000000
aI851
aI819
aa(lp18
I854
aI836
aI10000000
aa(lp19
I10000000
aI851
aI814
aa(lp20
I10000000
aI10000000
aI10000000
aa(lp21
I10000000
aI844
aI851
aa(lp22
I877
aI837
aI10000000
aa(lp23
I823
aI10000000
aI781
aa(lp24
I10000000
aI10000000
aI10000000
aa(lp25
I862
aI843
aI10000000
aa(lp26
I10000000
aI847
aI860
aa(lp27
I764
aI10000000
aI841
aa(lp28
I10000000
aI787
aI841
aa(lp29
I814
aI788
aI10000000
aa(lp30
I10000000
aI855
aI10000000
aa(lp31
I10000000
aI837
aI832
aa(lp32
I833
aI10000000
aI822
aa(lp33
I810
aI845
aI817
aa(lp34
I813
aI860
aI10000000
aa(lp35
I787
aI825
aI841
aa(lp36
I10000000
aI866
aI10000000
aa(lp37
I854
aI869
aI792
aa(lp38
I855
aI850
aI850
aa(lp39
I812
aI763
aI10000000
aa(lp40
I10000000
aI826
aI10000000
aa(lp41
I10000000
aI851
aI10000000
aa(lp42
I828
aI819
aI10000000
aa(lp43
I823
aI826
aI832
aa(lp44
I10000000
aI849
aI830
aa(lp45
I832
aI10000000
aI827
aa(lp46
I10000000
aI822
aI10000000
aa(lp47
I773
aI830
aI10000000
aa(lp48
I850
aI10000000
aI10000000
aa(lp49
I10000000
aI818
aI10000000
aa(lp50
I10000000
aI810
aI822
aa(lp51
I10000000
aI849
aI10000000
aa(lp52
I821
aI798
aI853
aa(lp53
I10000000
aI10000000
aI852
aa(lp54
I866
aI851
aI851
aa(lp55
I834
aI10000000
aI10000000
aa(lp56
I824
aI10000000
aI789
aa(lp57
I10000000
aI822
aI10000000
aa(lp58
I842
aI10000000
aI839
aa(lp59
I10000000
aI786
aI10000000
aa(lp60
I10000000
aI833
aI879
aa(lp61
I10000000
aI815
aI10000000
aa(lp62
I868
aI10000000
aI10000000
aa(lp63
I847
aI830
aI846
aa(lp64
I819
aI861
aI806
aa(lp65
I830
aI817
aI827
aa(lp66
I834
aI10000000
aI10000000
aa(lp67
I10000000
aI10000000
aI795
aa(lp68
I831
aI819
aI836
aa(lp69
I10000000
aI858
aI841
aa(lp70
I10000000
aI10000000
aI10000000
aa(lp71
I835
aI10000000
aI10000000
aa(lp72
I826
aI10000000
aI842
aa(lp73
I834
aI10000000
aI10000000
aa(lp74
I803
aI813
aI10000000
aa(lp75
I844
aI839
aI10000000
aa(lp76
I10000000
aI10000000
aI10000000
aa(lp77
I10000000
aI10000000
aI853
aa(lp78
I847
aI840
aI837
aa(lp79
I10000000
aI833
aI827
aa(lp80
I10000000
aI10000000
aI850
aa(lp81
I10000000
aI10000000
aI10000000
aa(lp82
I10000000
aI10000000
aI830
aa(lp83
I835
aI841
aI833
aa(lp84
I822
aI856
aI768
aa(lp85
I10000000
aI824
aI10000000
aa(lp86
I10000000
aI827
aI838
aa(lp87
I10000000
aI831
aI826
aa(lp88
I833
aI803
aI10000000
aa(lp89
I10000000
aI10000000
aI828
aa(lp90
I814
aI829
aI842
aa(lp91
I793
aI829
aI872
aa(lp92
I836
aI783
aI836
aa(lp93
I818
aI845
aI794
aa(lp94
I841
aI10000000
aI10000000
aa(lp95
I864
aI10000000
aI846
aa(lp96
I809
aI777
aI817
aa(lp97
I10000000
aI812
aI872
aa(lp98
I811
aI779
aI10000000
aa(lp99
I862
aI829
aI857
aa(lp100
I855
aI780
aI827
aa(lp101
I10000000
aI10000000
aI846
aa.