(lp1
(lp2
I369
aI427
aI402
aa(lp3
I433
aI387
aI427
aa(lp4
I443
aI428
aI446
aa(lp5
I399
aI377
aI426
aa(lp6
I411
aI407
aI372
aa(lp7
I407
aI410
aI395
aa(lp8
I425
aI443
aI421
aa(lp9
I367
aI423
aI414
aa(lp10
I430
aI392
aI419
aa(lp11
I413
aI435
aI374
aa(lp12
I391
aI415
aI466
aa(lp13
I346
aI403
aI449
aa(lp14
I419
aI458
aI462
aa(lp15
I413
aI411
aI372
aa(lp16
I375
aI362
aI373
aa(lp17
I431
aI408
aI431
aa(lp18
I444
aI428
aI457
aa(lp19
I418
aI425
aI466
aa(lp20
I411
aI426
aI409
aa(lp21
I376
aI446
aI458
aa(lp22
I440
aI425
aI423
aa(lp23
I447
aI414
aI415
aa(lp24
I462
aI403
aI376
aa(lp25
I436
aI434
aI453
aa(lp26
I430
aI527
aI433
aa(lp27
I397
aI410
aI421
aa(lp28
I370
aI425
aI423
aa(lp29
I454
aI365
aI425
aa(lp30
I444
aI475
aI378
aa(lp31
I427
aI468
aI450
aa(lp32
I481
aI346
aI423
aa(lp33
I413
aI411
aI375
aa(lp34
I459
aI404
aI424
aa(lp35
I438
aI409
aI372
aa(lp36
I400
aI412
aI412
aa(lp37
I413
aI388
aI441
aa(lp38
I410
aI434
aI390
aa(lp39
I455
aI443
aI400
aa(lp40
I396
aI474
aI492
aa(lp41
I472
aI424
aI405
aa(lp42
I411
aI460
aI434
aa(lp43
I396
aI386
aI405
aa(lp44
I437
aI418
aI446
aa(lp45
I404
aI513
aI434
aa(lp46
I400
aI465
aI428
aa(lp47
I413
aI424
aI455
aa(lp48
I388
aI427
aI480
aa(lp49
I420
aI410
aI400
aa(lp50
I447
aI419
aI444
aa(lp51
I410
aI443
aI451
aa(lp52
I507
aI466
aI455
aa(lp53
I403
aI416
aI459
aa(lp54
I438
aI426
aI439
aa(lp55
I410
aI408
aI377
aa(lp56
I397
aI419
aI431
aa(lp57
I453
aI424
aI411
aa(lp58
I434
aI406
aI449
aa(lp59
I428
aI434
aI451
aa(lp60
I448
aI443
aI437
aa(lp61
I433
aI388
aI451
aa(lp62
I405
aI375
aI475
aa(lp63
I382
aI395
aI426
aa(lp64
I431
aI364
aI463
aa(lp65
I411
aI408
aI450
aa(lp66
I403
aI399
aI409
aa(lp67
I374
aI432
aI455
aa(lp68
I440
aI450
aI416
aa(lp69
I388
aI413
aI402
aa(lp70
I431
aI411
aI395
aa(lp71
I434
aI468
aI404
aa(lp72
I464
aI443
aI426
aa(lp73
I430
aI420
aI411
aa(lp74
I455
aI358
aI427
aa(lp75
I437
aI439
aI414
aa(lp76
I414
aI441
aI398
aa(lp77
I399
aI413
aI426
aa(lp78
I439
aI430
aI419
aa(lp79
I409
aI439
aI422
aa(lp80
I459
aI414
aI484
aa(lp81
I439
aI435
aI392
aa(lp82
I487
aI385
aI448
aa(lp83
I477
aI493
aI409
aa(lp84
I393
aI435
aI430
aa(lp85
I376
aI414
aI445
aa(lp86
I419
aI412
aI423
aa(lp87
I437
aI442
aI465
aa(lp88
I442
aI408
aI410
aa(lp89
I411
aI412
aI395
aa(lp90
I434
aI404
aI439
aa(lp91
I408
aI466
aI445
aa(lp92
I411
aI413
aI447
aa(lp93
I425
aI472
aI424
aa(lp94
I429
aI470
aI403
aa(lp95
I472
aI362
aI355
aa(lp96
I520
aI407
aI477
aa(lp97
I461
aI430
aI412
aa(lp98
I402
aI430
aI395
aa(lp99
I390
aI443
aI419
aa(lp100
I442
aI478
aI468
aa(lp101
I385
aI428
aI438
aa.